{
  "keys": ["actionLink", "proposalNumber", "productName","agentName", "adviserName", "submissionDate", "proposalNumber", "proposerName", "expiryDate"],
  "email": {
    "subject": "Validation reminder for proposalNumber, productName by agentName",
    "template": "Dear FA Firm,<br /><br />The case from adviserName submitted on submissionDate, proposalNumber for proposerName is still pending your validation.<br/><br/>Please validate before expiryDate, otherwise, the case will be invalid and your Financial Consultant will need to revisit the customer and resubmit the case.<br/><br/>Please review the documents and validate the case via the link.<br /><a href='actionLink'>Click here to take action</a><br /><br />AXA Insurance Pte Ltd<p><img src='cid:part1.1234.56789' height='70' width='75'></p>"
  }
}